Liquidity in the Used Car Market
…
# The data

---

## The data

## Detailed information about the cars

```r
cars_data
```

```
## # A tibble: 613,614 × 24
##    id       brand   evjarat allapot kivitel    kilometerora_al… szallithato_sze…
##    <chr>    <fct>     <int> <fct>   <fct>                 <int>            <int>
##  1 15650800 bmw        2019 Újszerű Sedan                     5                5
##  2 15988457 peugeot    2020 Kitűnő  Ferdehátú              5000                5
##  3 16062262 peugeot    2020 Kitűnő  Városi te…                1                5
##  4 16635025 opel       2021 Kitűnő  Városi te…                2                5
##  5 16636084 opel       2021 Kitűnő  Városi te…                3                5
##  6 16696088 opel       2021 Kitűnő  Kombi                     5                9
##  7 16742853 peugeot    2021 Kitűnő  Városi te…                4                5
##  8 16776038 opel       2021 Kitűnő  Egyterű                   2                7
##  9 16814133 peugeot    2021 Kitűnő  Egyterű                   4                7
## 10 16844090 suzuki     2021 Normál  Városi te…                1                5
## # … with 613,604 more rows, and 17 more variables: ajtok_szama <fct>,
## #   klima_fajtaja <fct>, uzemanyag <fct>, hengerurtartalom <int>,
## #   teljesitmeny <int>, henger_elrendezes <fct>, hajtas <fct>,
## #   sebessegvalto_fajtaja <fct>, muszaki_vizsga_ervenyes <ord>,
## #   nyari_gumi_meret <int>, szin <fct>, sajat_tomeg <int>, teljes_tomeg <int>,
## #   csomagtarto <int>, nyari_gumi_meret2 <int>, nyari_gumi_meret3 <int>,
## #   sebessegvalto_fokozatszam <int>
```
…
---

## The Data

#### Prices

.pull-left[

```r
prices_df
```

```
## # A tibble: 12,409,519 × 3
##    id          price date      
##    <chr>       <dbl> <date>    
##  1 15650800 14970000 2021-05-22
##  2 15650800 14970000 2021-05-22
##  3 15988457 10800000 2021-05-22
##  4 15988457 10800000 2021-05-22
##  5 16062262  8299000 2021-05-22
##  6 16062262  8299000 2021-05-22
##  7 16635025  5299000 2021-05-22
##  8 16635025  5299000 2021-05-22
##  9 16636084  7789000 2021-05-22
## 10 16636084  7789000 2021-05-22
## # … with 12,409,509 more rows
```
…
